<?xml version="1.0" encoding="utf-8"?>
<!-- Generator: Adobe Illustrator 17.0.0, SVG Export Plug-In . SVG Version: 6.00 Build 0)  -->
<!DOCTYPE svg PUBLIC "-//W3C//DTD SVG 1.1//EN" "http://www.w3.org/Graphics/SVG/1.1/DTD/svg11.dtd">
<svg version="1.1" id="Layer_1" xmlns="http://www.w3.org/2000/svg" xmlns:xlink="http://www.w3.org/1999/xlink" x="0px" y="0px"
	 width="358.216px" height="316.213px" viewBox="0 0 358.216 316.213" enable-background="new 0 0 358.216 316.213"
	 xml:space="preserve">
<polygon fill="#010101" points="2,143.82 2,172.393 303.45,170.964 178.679,296.211 199.157,316.213 358.216,156.678 202.014,0 
	181.536,20.478 303.926,142.391 "/>
</svg>
